{
  "88709956": "3d504cf33412a48063718992d6fbe31f663acbda",
  "88708281": "a59eb029a9f4c9a996010989e5df78b5f710f9b0",
  "88704872": "2bba4858facf64305e2d0957917031b3e6e9221a",
  "88700060": "ab4b43cdec99a9c08e4359337cab25904b4facdd",
  "88694983": "55343b6e17349b4ac9ebd7cd0db19a0d51ab49ae",
  "88688502": "e3b6ffc424af021299fa0eb9fc635f11e002f4f1",
  "88687578": "88c3d8589c737964e122bb44e364d2e4aa9a9d30",
  "88684761": "6317399b4a4e118ce3fabda3080e4143aa2718b0",
  "88679190": "9c36294c04e1f0901d9fb547328f5e91a0dd597a",
  "88663220": "78199b0f05d047a8823d558e56d22c6689783507",
  "88658256": "d9f1f03635dcb71b7a51a0ed60fc4ee7799627be",
  "88658115": "619cd3338d0f9e453bc5601409ada8f4223ee534",
  "88655332": "044ed39587413a1c57a3c3880f912e98afc29e0a",
  "88653230": "5ecdb69b86b2ffe978909b8b0ad547183808caf2",
  "88653204": "ecfe128aa94de45245ff94325d4c620e3160cb61",
  "88639610": "1372f283ba03f033e4f239b8472eba84f0aa7720",
  "88628765": "98e732e79ac776ed3ca4cd6e04d6c58e1c5f12f7",
  "88608001": "cfa404f402acc13ff164ae9d86f7c690ea79ddd1",
  "88601634": "2415a6c4b17ff84c0f10499f6c5681d49278e622",
  "88601384": "c5645dede841d8c45047b753d8e2d786df484f79",
  "88600426": "dc8b942efbe94d161f01d96848132aa596383412",
  "88589970": "6c952b575cfd24114083e38844ecf18e4227bb58",
  "88576294": "0754481932af60d3ca27efa9c6976eb44169a8ee",
  "88571512": "cbfc4b7116f133cc04756a2f8fdfbb80b8090f0b",
  "88566206": "6862d11f80ef2ad29ea7a41a3205ff5be5928ad2",
  "88543467": "4e9319de073d194a405edb40bf655347a12e9d0d",
  "88540321": "82305f452a871b6fdfd4b63aaffa89420361698a",
  "88527945": "b8b2baa2cbef24354921770a5ae5157cc0cba80a",
  "88506961": "d00c81ea052a04ca55807cf38bab6473b7ac29ec",
  "88497038": "9be038cf55438f76645289ee5aa5b5dcbe639dc3",
  "88463342": "a1889923335a68abe4ee3bf3b47313e7a8f29da7",
  "88442492": "d6b6669aaeadbb9dbd2c16972727e1dff79ca14c",
  "88433679": "ee104bc0cbf70f7d2e0df95d87086a7c3cf36bd7",
  "88417815": "689ddd9f772e96fed6c4b38fd8a17aa62b936429",
  "88360895": "5cec2b3e387b5a94a038d103a203458730ee21a5",
  "88360865": "dbd14b872f9bdf0ec7e2b409dcefea127e41a72a",
  "88360863": "82908631ec551513c040578c198ff6d243debf96",
  "88360856": "f53a079869a4f0a6b353f711f1ff61675bfd305f",
  "88360840": "4c3c0b1deac2593ce44db1d151811f41ac4c0133",
  "88360826": "ba52084935c629cd1ea6d0dafcb2031687318ae5",
  "88360823": "7e17c65e06a261c61f72c49ccb0dc2d8a6a661e7",
  "88360808": "e9029918504c6970dce9800ff90a4eb67411108f",
  "88360797": "712de1538d43acce404a4b649dd79ef1ffff47fc",
  "88360792": "526e5fbcee4753ed3095cb8e20ce92dea544f8f0",
  "88360787": "7b3509a0d8ce72b694652f06aa550eba7883feac",
  "88360781": "8f2022d00954031d1405f409ca9461134bee42f9",
  "88360780": "09924beb4bf58efd0f53d6def2707d9299f25d9d",
  "88360766": "0a25489ae9f85d014afb2817b1e7cba083092847",
  "88360763": "e8d96c9fe92b85e645bd9bca2fa0c6345cd487eb",
  "88360761": "0099c97f4dce3914ad9e6955f1612e5616fbbcb7",
  "88360760": "11bd147207a455fc5fdb733766e337bd20545982",
  "88360759": "424af686f6fddf73a7bbbc7a636b4637e21f5df5",
  "88360757": "a09a3b6c747e4e7c1e3b7ac07cdc0181020ac44a",
  "88360755": "1a255630f6e517354aac6943adc171a2e3ba5c82",
  "88360743": "813e8f6326b7624911d80bb4587b8e1f48e7b9ce",
  "88360729": "9ea3f653cff7914291154f96b8f48afc8647eee5",
  "88360728": "a9a321b67d71c77aad40108ff068189e5145147c",
  "88360727": "2ba46a14887f153a90ce702b08d839c25dcfb5c3",
  "88360726": "e96174feb7b4a064012dcc488e58284a45737894",
  "88360724": "27f39f3770c9bb3dcc9dd68383d06f9164f4ebbc",
  "88360707": "d50b6f956e1831b48cf5852d0ee657abf26bedd4",
  "88360704": "6ce5f4675eab36c4fe758b639542b8de49476b15",
  "88360703": "b5eedfb6d1c3c5db8a4ed12deffc60305103505a",
  "88360700": "e4a19bd5aa0dd124eda3fd80e7d085d861f25c7b",
  "88360695": "1e0c912cf7b1ed8fd567fedbdae47b10c839b38f",
  "88360691": "b87bd5a07e6370e4a5b142703d63d13fc03ac6db",
  "88360684": "347a4aa78be5c096d39e0ad37f689b0d3767bbef",
  "88360676": "1577ce1c676b1e966afb660487b65a86527539ae",
  "88360672": "bc2626a03ece4737f1ca4d14a5fb730148f4fbcb",
  "88360665": "7bf98e2f17eb02c0be9d593c9836dc549816c362",
  "88360659": "79b748da0d063b4947fbc0a1412ab7f070d57394",
  "88360652": "fc1a18450f2bd2ad4536abc1a136d48bf1856b80",
  "88360646": "835a7d6685331cfadb4411e32e1aa7b4c6c2a0cd",
  "88360644": "4e434621e4e8bc546c6cd93ea6c632e720ef09d8",
  "88360631": "9194fc94e6c5561d4a12b30a829c266b5a7518e5",
  "88360628": "215b7dea51085ac8240a880a619c0ed76a7c317e",
  "88360610": "2490d64a086988911436d28e192610c979a6d977",
  "88360608": "0f0dc41b34ae65e3ed7b345128a6b8ce39f51507",
  "88360605": "360c0fbe98de8c739f54867a6e52e9c902188337",
  "88360604": "6ca8ffcb0e321c18c16afb0f3b0e227e9d3b0393",
  "88360595": "199f0ed58664d0ebffdb73bc0a1eec85ece9afe8",
  "88360593": "d3773c207af7382c4a96eb88f06dce02515f0e76",
  "88360592": "51dc04ba0f59e26991997563bfc7f7bdb7634c36",
  "88360591": "242286ac68c47576da887ca399f53b83cbf5b642",
  "88360588": "b3fa970d8cbce28556f2e3f15d46e9a997f789d4",
  "88360583": "0b5f3001bbc5ad56d8dbec9b299b9fdf23f72d99",
  "88360571": "9423dde9d0817448d2743727bc3bd02410716c97",
  "88360552": "40948c4c187bb1ae15aaa577d04be358aea10cdb",
  "88360551": "ca8673da04a1a8dc00e46abe80016319db4d1122",
  "88360541": "920d10020943dcc795d88927e481cd503b1eb51c",
  "88360533": "b6bfa1a25ee844ebde5fbf751a8c135c3d7fb8c3",
  "88360517": "e82fdba78e75a05c13c34d1667d7883b2cb7e503",
  "88360506": "2dca9b0965017cc9388307b35a0553943e44b4aa",
  "88360489": "8dd1315e014a7779fc7c290d888ee21b4a3c8a98",
  "88360480": "ab16a9ba6b3aedafac07ed1d3fd29d655017058f",
  "88360477": "a18a718b0a0c391acd13a167c13c95ff4bff229e",
  "88360474": "965fcc48b8914601ee1ce5ccf39bce8bd8f3077d",
  "88360464": "aa086abdcf225a725060e05ffd663b5e21144ccb",
  "88360448": "e1475ce15b6f2a0dea82aceca4fa88afb0979cbf",
  "88360444": "2d6b736ce5899c993226fe26950dbcb847a11bc9",
  "88360443": "f81b0c071e7d1acacc07177b71e575618e87044f",
  "88360442": "785854c1cd70093253e606d4609e044c22ab2e8f",
  "88360441": "b451e81757ca0f20bcb4432c3164c19caaac8638",
  "88360431": "f671eca4b05767b8aca3a40d620bf121b2e608f1",
  "88360428": "3133657da044fcda8a6750a267a7f12d50a76bdd",
  "88360421": "9eab7171f8d19832039b458a666ec35b05d9c4c3",
  "88360416": "92f59b4379485878711d03e14b7f90a17d047318",
  "88360401": "b257b045607c893b2077f9272046b241b06fa63c",
  "88360390": "54fc8ba737d54ab7fe272b18855d1a799e5cd706",
  "88360369": "cc16c9feaf92ce7a7c3249d26e201a5304422eea",
  "88360367": "e17f5857716627a7682f4cdcc6cb564c6d0ce1a4",
  "88360357": "4a6f09ce265f738820324dec0032fb20de1aeabf",
  "88360353": "bad160fc12f2c653ddbe46a5dec5ac065b2a32d9",
  "88360347": "432eec6aca56af816284e1e624fc074af0579861",
  "88360338": "5e88d12de18026149ddd1d36b721f3dca480f249",
  "88360331": "8693701f6fe728c10ed09cd29b5e7db02e94757a",
  "88360329": "f9d9b019690161f5d944aff592cb4b81a937d8b2",
  "88360320": "60112a0be1e80b711cbf60c91b1a7370dc2aa262",
  "88360309": "1d8a45653149a7d1073a8506682b299e515a4d05",
  "88360307": "8c59a5ca0a992dc4e51ac85f4b4c4b3a1aba2210",
  "88360305": "642458713fcea61ba8aca78d9b421ddcd1f0d0c3",
  "88360303": "85245a8ef9f9657b41d39f00de208b0de5f77fd7",
  "88360302": "06c83467af838f8a532b2164d7a66b4b20dd8dd1",
  "88360297": "815361c00cce1c6bd2fe19f939f4035622f422e0",
  "88360293": "e2c5c68924be453a72f2ca52b0cefe9c6e1f4067",
  "88360290": "ebdaa2fa4bf6245bf169b70973b86c889539e288",
  "88360286": "14a3e1cc4020d3d663cb74202fc3189fb79c1e2b",
  "88360282": "69274cc4bc535ab91b1d4810953c6f7af675aa07",
  "88360277": "35fc3ac8d417ac290c7c0bce8cc84896b324dfb9",
  "88360275": "b0b06f68c5b9a8f6dddf7de23e6d0ebc32a56f63",
  "88360270": "c5d3e6c6493365606aca1e8b66d436171733898f",
  "88360262": "cd83d8ce13d721265f721a2bbc543738e91b0524",
  "88360260": "0c26f696e6e4c6e210e28a8a97daccf0037a4e11",
  "88360242": "d07afe92b1835c4774bd364f257a66f6fe45fd61",
  "88360239": "8e84d13f1aab3901460bf4d287ef97d34b05165d",
  "88360222": "25726a772d15e0c5899f43aa9e111c81f3ff5adf",
  "88360220": "544be9bec7e3c0299cd0982a19110c822fbe3aa4",
  "88360216": "4ecc09ef70e8d310479f11cc16f79109779ffb07",
  "88360215": "f3519e7cfbb7f2ae8d472d55903bac3b1e951f25",
  "88360212": "6952446ca614bdc365d9f6bcbbbc6f793a8dc589",
  "88360200": "afb963607c170c2602f48c5cc15b94a658515511",
  "88360176": "6e7f9b8f6e7012dd1b498ab087d6289f8e0f0858",
  "88360171": "a0c1d874513f182f74d1c5cc3d5b70e5c5ea7024",
  "88360152": "fbc6ac3513782ea4e37ee01074a12254c344f163",
  "88360141": "93234e4404ea497cd78fda81ed9e55f5710bea7d",
  "88360140": "123f2e58cc70d477ed84902f79828926073a7603",
  "88360132": "afe20b5340c8b09f8dec36ecec60431ad544b483",
  "88360127": "9d0b6bb6ce3ee393a3145336f2ddda534481f8da",
  "88360123": "20e0d753db3d090c779fa8ee949ad410c8e67c43",
  "88360122": "dc4167679f88fa6a632bf1e334e37fc6554beb54",
  "88360116": "7c467fae8ce28ffe4834b003c729036315997e54",
  "88360106": "20f37da33a67d45402fa37bee8b506ab9bfb14ce",
  "88360105": "18aff8c4479f0eaf233dd50cee054dbc57184403",
  "88360104": "604d3b970293efdaa1cc18de429c8dd70c277579",
  "88360103": "c7b485438f62ef022282e63886b27abf86296577",
  "88360102": "fcbe2e1b62868390daac9685597103d78710f64b",
  "88360094": "68d4eb3dfc69873d116efac8a30d7475c25bf626",
  "88360085": "99e56dfab3db055e54e12029874043d7de7a5ad1",
  "88360083": "3defa14e53a6b440cc1937538f05a08b43319318",
  "88360081": "46a6914ab3eeddf3b612f5eebc39bc33d29d385d",
  "88360079": "7936ef2ca75af891174c50f0f0bb8852028996d1",
  "88360075": "80bff8a1c383cdcf76cc90d1e236c2b3cf4b423d",
  "88360074": "f1250e508f54b46b787930151abc4cf5e779c19c",
  "88360058": "5bbcafc2a7b4bb2b58ba93e8bd47ed4bf33a9f3c",
  "88360056": "068d7ce2e5af8bb58ac9f4a4009471230f89856e",
  "88360054": "282f8ba9f6471b8beee1e265c0865f00672bff74",
  "88360053": "01e002d258cc3efaffdb31929269bbfb9f6a9e99",
  "88360051": "e5ab3997cc7032f9f3517d22cbf359f2cb007067",
  "88360049": "84936ba68479084f03fefb225a807931b35481af",
  "88360038": "310bbd3eae7b0b6ca99bbacc6701d1a1194b7923",
  "88360036": "ef3455ed8a3a42c8cc7ce3b079d0e31be347f468",
  "88360034": "a85b7b5092d3685e40ac23e217922ac427f92a97",
  "88360030": "b1a3ee2e60673d59ad68fd3771eb0de058c038ef",
  "88360026": "7bcf2c4bad849872c4b804a0f2e0232ab3f6a04a",
  "88360022": "3d957cf0dd9f1b76184aed5e6ea94564d58f6979",
  "88360019": "04411fa4d8b042380c358349087c547ff9148601",
  "88360018": "2a3bf1e40dad3940710f25d451b7bfaaa215a13d",
  "88360015": "334f0a88c51d360e88e36f0fa3fe288ddb6bb18e",
  "88360012": "dfd614cccd87a28e77803e88ce6df239d1ed5d72",
  "88360008": "2e15cc272140dd7b1e03653bb46f63271eee2191",
  "88360007": "c20aea0a093e9384d8b38b8a0eac84b0bef2e7d4",
  "88359998": "024b6f7b50ef14b83d3c12e3fd1763f3737c3955",
  "88359997": "f5a38c4b31a8072f254c12ccd6303c6febe962d7",
  "88359996": "d8e4bdc6c3a774f9b48db6e4def95d0bb9f84a19",
  "88359992": "c76056eb27e1a528ec2d1f7b622162bb74b4249c",
  "88359985": "e5f8a474c03ceffbb70a526819045825ec65c519",
  "88359982": "036eea3034e2ed624ea5b92161b2ff871b889fdb",
  "88359968": "bd9e80d3ea0e85f584ffe9fc68ea5278a067ee73",
  "88359947": "c759b86ee74f30f2ef60921027e1733ee7afeed0",
  "88359946": "0268f00c08bef14b35ead3393e85c2b6252166ae",
  "88359932": "03c94ed0fc77c64387da6bbb99a028de1106ac10",
  "88359931": "609f58192a337776ea9c5a5ee91336e63a5f0cfc",
  "88359914": "0476cd85770ffb81f35019c96eb586c5abb1236f",
  "88359912": "346afa3535dfdc9558e87c19e091f42753f20f94",
  "88359899": "9b59e3bc694e85412de46c847b8e446d8f21f622",
  "88359897": "3a29bbcc2d4ec0224fd203ece061a39aa8ad6a37",
  "88359893": "612a692c33c3e591cc05921259f7f692c521b611",
  "88359888": "fabe73188eafbe0fbdf709769ac3b5b265ae14de",
  "88359887": "9bd0bbd8906b48d32f693b0115fb225467ee295f",
  "88359886": "1329b240087622e0a5e29c227451499e35910a29",
  "88359885": "6c0a23b9fc2daf08c5f7c5ce69febe51b0abc58f",
  "88359882": "47d3e26fd3bdbbdfe4f33ee53e2d8a30fa5a77b1",
  "88359876": "ebc19abe190144e21be36956e5efc9d123531af7",
  "88359874": "5815642a15ee106a102fa16b38bd49e6c7b6b701",
  "88359868": "53a4406f11261034b0988d3b988e225c0cdd84c1",
  "88359865": "0d6079835fdc4d88c3f4c1b8c85ac478d97ecad5",
  "88359861": "0b5392bdf9173292052cccf07702a11ddf206368",
  "88359855": "a3920efc3fbb7c1548d8025ae24afc2c9b4ecf44",
  "88359853": "0d38d29306b45e78b16aced9bd4a6b5ec23e66ef",
  "88359848": "27ce45cab48e4cf58007f889d9486e4957c5bca0",
  "88359845": "8b0f1204e13581d9d71ec827ab2fbb195a9afe19",
  "88359835": "da39ae2863eb7147460ebaa374def05d34c88cd1",
  "88359811": "097ed74117ae4d2514e0858c255c46c64a032eca",
  "88359810": "e0d5be376e438c156ebc6c6708d7e9927329d909",
  "88359809": "08c408564423c86360922fc13ed5a33e938e2244",
  "88359804": "f2f3672cd11609d97b3b7f28c7acd5d3ac453594",
  "88359797": "91b7bc686cc56f5f4a9d704429f91f9da02fa57c",
  "88359793": "38cb692f43a7e5f18c3b640f56070a91aabecaa8",
  "88359792": "023903ebcc27a2f2f5a1ea3620fc0c3811f53720",
  "88359789": "1b13588afef2fbfe40c0a770ccb6cd68dc71a5d3",
  "88359787": "4558619ecb9f753016e0de1fde7554a654a3c113",
  "88359786": "49055c065fbf828494698e600163f1fd0f73b785",
  "88359783": "348868967268aaf115f01f74a8ef6ae952be2755",
  "88359782": "9ef20658fc30f0593a8de31d19b4c69f637bd250",
  "88359780": "9c8b6e65563547b83464070ec2f5bf3b5cf25d24",
  "88359777": "3dfc57b475048d4368b707d561436781cd7bc8de",
  "88359774": "23f4a30b9ea1d240d4ce2c05fdbf2988ec80dc09",
  "88359768": "be8f44054c4d05d4820af0c20c5ddcdffc7200ad",
  "88359764": "2a12c5bf1c26f491369ad9b037430d2a1e21d2c5",
  "88359762": "6aee20d57921c8655d24730599fd87c78774ecff",
  "88359754": "78982d98698585ad123ef839c673a3d2cf311066",
  "88359747": "4c835429c8d0f352d89c7e24f4b84f1ba10e7509",
  "88359735": "d38ca19bee3ec0f4a9f8112883c19e700fbe932a",
  "88359727": "0d462834a55a14119276fade3f553852a422b567",
  "88359719": "81b4ef0272fb2c47179fe30565397a0d50b529ef",
  "88359718": "ef575b480cf15ac15e4c95c6a93c04976fb69c9d",
  "88359713": "23162b8f3ed739eef2449644a793e14258fe0635",
  "88359710": "05fa8ba0e303a25350c41abf7762331fe81d63d4",
  "88359708": "632f4208d0afbaf8ca3d3ac2314d0b5d42e5325c",
  "88359707": "0b957f7a70a181acc904713d272168111b522e81",
  "88359706": "03b86e899d5eba9b9eb0a7a805c070ae3a139d3f",
  "88359705": "5eb76c0460d6bc557a80fa9e32999643c9a97475",
  "88359695": "84ccb7b08d7f2287732390cc608578b9896e3f9a",
  "88359694": "011fd6ec3bc66804545fd4981b97c8c86c577d42",
  "88359689": "26b9347046b85450257b886323e325a17da137f2",
  "88359680": "86a6e4186c15c7fc2fdbc7146cbc23fa7b4e925a",
  "88359677": "84fc82852fda8e26a2801c7e01011032b9a86579",
  "88359669": "45fcaa3e975010ea9a4330ed6b2087b15108fa80",
  "88359667": "4f2dd8c68e2c5b1e2fdf7a302612070ccb1e86a1",
  "88359658": "e7260f99e6625ea0256f8c1bd11ed5d553cb41b4",
  "88359655": "5c60dc63f409a415b7a62c7a4c76945879504313",
  "88359653": "78ecfb2df02a092dc21c4ae31082fb899bf38024",
  "88359652": "3d0e2c40086fcd923bb30be0495f0a60babbce2a",
  "88359632": "503a129c988bde9ddce72eb888ebbdeaae96f202",
  "88359627": "e177db0dea99e4a09cd6a354ec641ce507771b2a",
  "88359625": "0fd536cf3c351e25de7754a6c346fa8ba95ff85c",
  "88359615": "c4ad8e91d7394fd360ecdd1677db065d5996b64a",
  "88359609": "a661dcd5a1b9a486983a0b72f52f0d3f36c90762",
  "88359603": "e6ae072fc5e56f5e61765ea9c812cdb9f982b450",
  "88359592": "5efdd5033d81d9afeb76ac9962cde06d7906eb49",
  "88359591": "14a7528a7b9e002a3f7fd72c8a5b4741491bb290",
  "88359589": "49e8861455d642bef3fbd9e035c4a4d48b77e294",
  "88359577": "b4415e57fa5464b2e7a54e7edaac6314f6907062",
  "88359572": "a26d19a600640e8fb44ad67acdcc995edd9cc4ec",
  "88359570": "ce3e068f7793a910ecd097021f5f7975edd93272",
  "88359563": "fddff51846ac107372c1a27da044daf1334babfb",
  "88359561": "2da901e400ec329d06027f5a0c30b5c19decda70",
  "88359554": "4e6b512507c915a04590c9f440f5880006d8daf0",
  "88359551": "ba81feace69961cb95acc9a59e07772b539c412c",
  "88359548": "4c68e681e8363d2343dc574da51d785ea7203328",
  "88359547": "eb1da514a1a4e3550eb89865ba32cd2957056ab9",
  "88359543": "618872fe207eba160ad556ea00fe0baa6df52b41",
  "88359534": "0efc654168d9a0f7563e4d6f912ce9e37aca0235",
  "88359530": "e2ebea93c25de1e4124dd940b0c113357e224c95",
  "88359529": "b2fef4c90c11cd88b328ba5142a6f0e63c1ee33e",
  "88359523": "e5ff1812ac33cbba0710d9879e8b534123b7f846",
  "88359522": "cf0f03d941d8d4a9735907fc9e4601c2080e371b",
  "88359520": "b92b16235980399c6e2afe6e02e4350e101c07ff",
  "88359519": "465891cc2695cb2c895fc01d10eba3e4c55f1691",
  "88359515": "61ab16dd87e28e01088f46969ffef8912c5e50c5",
  "88359513": "b37c585676765b4fdb551e39ea866c82521f6189",
  "88359510": "97e0b5940f8faf38e0286fa97370df0d09084533",
  "88359509": "52a10bb09b05a85c2bea26bc34858ce0abaa467a",
  "88359507": "a4380b587f8cc23722da2349896e69a158247c9b",
  "88359505": "f14fa14f964705fd6dd2feea4602767ebb8b98bc",
  "88359504": "be7cc4d86a512692f40e2d3c0789009f6284431c",
  "88359503": "58f7b14fa6e3668aa571cfc9bf5936980c6f5eef",
  "88359496": "20676907b476c872f0d939835d273f2bcf07327a",
  "88359490": "4ca5b7a3c1a5e6ed21b6d9ceadaf74c4a37be39b",
  "88359481": "fca612ee920f467b7d462c0f64fc867552f62c45",
  "88359477": "dc7e7ec6f33a28adb7a346b1ad98ec184f5bb235",
  "88359476": "65e77f25f612c779496ffeaf2c2703229a52e6aa",
  "88359475": "f37f74bebae5e1cc62c3440eeda93b09333058b9",
  "88359472": "81f3872436363ec36fc1e99d7372da487745dd74",
  "88359470": "52f3431f18977d9c589bc69cd9f5e9c9ad5591e2",
  "88359469": "ac97ac992291592f0c4a5439b28d2c2f1a3ef733",
  "88359467": "33573598790cea69f05cf4e396951baf88819ad7",
  "88359457": "0e7669b3e3855274809cdf24e9970b2c8eea771c",
  "88359455": "91272a198488bbea237b05055d1c4866d8e7fecf",
  "88359453": "a79792d86283c5d26253bc821d14e7c327af4018",
  "88359451": "0adfb733fd2b9a2188ff7ac041524b04b5d1c649",
  "88359441": "775f0a97fe54a46d8ec75124092d49f7b4926f51",
  "88359434": "ea07ed35d2724d27e445f9a278a136e1a9e7b15d",
  "88359428": "e9ce41bd9cca839a8e61c38659800c18edb2f82b",
  "88359417": "98f18b3f6a61c4678c120e6c9f6c2730a812375b",
  "88359414": "3162e7dbb3ab2f65c490632536dc1027d49532b7",
  "88359411": "923153fed2c72f4e79e01e064fc4f7b640d8a7cc",
  "88359397": "837357bb33a7351dc07f3725d38d53867121cfc0",
  "88359391": "113259d93c5c4f9cb5e897e491186fbe583cbf0f",
  "88359389": "38a9b33a3572930649590129bb872a58970f9423",
  "88359388": "6029a9d6c36d464b6f0f5efc008cc9f7d07c8e16",
  "88359383": "9136042ee59fc940203786a2d04441f76de92ca5",
  "88359381": "6afa37ef3518e50d741ff4595da8f8c00c98f259",
  "88359378": "cac8ec7ff909b90be1ded0506fcde287ad8702db",
  "88359374": "dab472e19776619ed58b4209a7119a66466a190a",
  "88359358": "f014a9c5db7de994495f80bde8c02ac428b88fd1",
  "88359354": "e76614da29848e0bf82a6445f0a6adf6ebb30a8f",
  "88359347": "b31274c53622c2de4808f7b33d24928bb4549c94",
  "88359343": "be7a0c34ce4801a8d1866734f70220d26a2908d2",
  "88359336": "e3447856cbf1446b2b5f76b43b060ad3aef9aa0a",
  "88359333": "f349ef57f63f7e372f2a6d14e09fdc402a429086",
  "88359330": "b02c1187fbf34e843375ca5bdd25f4a2488590c0",
  "88359329": "bc5b2e5bf619629618b5a8ed34d1087b1ad8ac88",
  "88359328": "fc51ef3e220e0e15c44b564e22c5339a4e3b53ec",
  "88359321": "770165546ae420e5c30a302db55e14f0bd144284",
  "88359320": "4519abf03b762dd99f176f03cd76392d6e5c685c",
  "88359318": "8e932000c5997cc7abe4db50e17686630e3cd7cd",
  "88359312": "5955e1320de9ed24c488eb8c4c59c989fccddde0",
  "88359310": "28b129f25e05c19a21f5f1cff0912e58a0776bfb",
  "88359305": "108519c5711d428990f97d1c271ae2dd0e12eb3a",
  "88359298": "59a3b5aad14d836fe6c07fe1c1df286578b496f9",
  "88359278": "b2174992454457fd6e0ef1a8c529031b1d728fab",
  "88359274": "6d9fc68da520430cd53cf2f95ee775c823c0a359",
  "88359270": "0fcc6549dbdef89866a3a3817d8192b6dcdf055a",
  "88359267": "a66658bfaea52468c9a6581f762ea51d66460ae1",
  "88359263": "a0d660fe972d46e19ac4542dc34f2d32fbd00738",
  "88359259": "ae6c2749a86f06d5ba8ee70b0ca1e8d1a65c3d54",
  "88359256": "5e26654e3abe3e547c4304c46115935ff0d578b8",
  "88359247": "015db28850eff53cc617f831e50b69bd38891d4b",
  "88359241": "d198c856b76550c48d84c7a4fc6700ca56b2fdf9",
  "88359229": "4ee74bb10c008ccac8594b3cd565ed0378f2b81f",
  "88359228": "f5fb7ebdabe09f60955701cf38a74494c8dbbe77",
  "88359219": "cd77bd27f1748b782b53335754cb3961d6fcbf92",
  "88359214": "441e0b6cb0142734c2cd0c7725d7d81a94a27a4f",
  "88359211": "c6f4f06b94da3d4003b34c54adf4e51627e47365",
  "88359210": "3dd634d078532be64d20a8459efb87e001d5dde9",
  "88359188": "9a2f5050f8ef4b29a533f29888621fd276083f02",
  "88359186": "0a1c210dd81419934e9dfcb806bc67236f3f1aad",
  "88359185": "5cd8a4bd9d8e116377443a4ada1d9884a851cfbc",
  "88359184": "02b564dfa75dab71bde797b1de539cccfda9323f",
  "88359183": "2e9c3c4840601ee12e8b2216ed326a8a319f1967",
  "88359172": "ab6a8dfbc0ff0e9e683be0f9d95a8bde86897a60",
  "88359168": "2ca8df49ce00d984c8ce3956ec674f071b30ba36",
  "88359156": "ede8e41729a671228f03e71c8a53bf4fbd505f8d",
  "88359155": "e33b850605d2b0958bdb21b21526a61ef5d20fa5",
  "88359153": "e76f515fc8d4cf2febea30c53156e25617ef348b",
  "88359149": "7ed38233d1e73fef1c2f3a37ad16ad4ad8f8e408",
  "88359145": "bf136751f66a08894cfbd035a70a0eb843b5d4ef",
  "88359143": "e78d19d8ec48e58d4efce46aa3f62dd044b55ced",
  "88359141": "6d32ab36522729731fd5936b92ae8193746ce78f",
  "88359136": "1d3f10148fe4ea0eec26a87e64560dafe1720957",
  "88359127": "412bd049735c070cce31a7e8bfee09efe6fb8c8f",
  "88359125": "30868f7389e840ba09741f65f7acbc0b7fcda749",
  "88359117": "cf39f05797c271468ddfc9afb674613ab09dfdb2",
  "88359116": "0ae2710062166d197ded842e074b4115de538ea9",
  "88359114": "2b4a8280daf7ca0ad567f99784e46a2cbfd68159",
  "88359111": "0f13017e4c48fa716d166ef48dec6e1e45b95c51",
  "88359108": "b0835f42709cbc283b2e59704ad920a5fcf48053",
  "88359106": "ddbcd011eb295ecb38f48bcda15a9df5946ef84b",
  "88359105": "f017e7c454b70c9d2a5bbff1f6048ec96b276c27",
  "88359099": "cbfc8b533b8de3e2013022d2e98a8d70395fa437",
  "88359091": "a8e53888efc2dd7a75d88aadc19f0628eddf0fb1",
  "88359083": "2e922d2c5975d82060c957cd7a398e2a67066381",
  "88359078": "e603ce25396e96fd212e52a8a2e8df583b8cb2ec",
  "88359077": "11f97389ac0ab7a228bb15d82bf9213841540457",
  "88359070": "07c34ca7d0484d9ca28a1a6ea567443bb2797d70",
  "88359054": "a39a611d4bf97b45480aabe05681db17d8af3552",
  "88359052": "b9c1f5bc16732a28fb89b28445b5d908cf10d0bc",
  "88359049": "3854e27dcac80da32bc57c50c3d6e0488622a28a",
  "88359046": "7f5f0167deeef8913d387bcb74e1ee0c4dcaec92",
  "88359040": "068267747967558290ebe42dac7b426714dfbae2",
  "88359037": "8e4c2ae46fb1d62b3f44342f377373100acbe957",
  "88359027": "db5845958f43d6af3103c83301250b3aad8d6353",
  "88359016": "69572b4846d11bbc2092d1c1149e9fa9f4629a88",
  "88359015": "b6f7a166d54ffdfa81bd7bf7e7123c55edfcc927",
  "88358992": "202cdfce06e792ff0dc1d9af07a55679fa54ea9c",
  "88358990": "94241dcdb878f57bf1660dc09e0dfde962255388",
  "88358989": "18c031ae34aa8b57f58f009b224592a09e19b889",
  "88358987": "4606d4e146d506863b00df68b4a0008182eb2b28",
  "88358985": "e551a188b949daecb9165906deb94e5b48933dc0",
  "88358982": "ddd5d9b2af190ad17b257196952c811c530a89d2",
  "88358981": "a6ba080d1131774abfa6f3e7eefbc847e853405d",
  "88358975": "35be93f53f0da5410ff0d5ca2c3b1b35d59922a9",
  "88358972": "45d99781831af4d14eb79647bf446fe866eb55d6",
  "88358967": "b90451a974ed248756a90deb072a267c8c2637ec",
  "88358961": "f2d50c75d6017db41c909554f6a03826e2da2c00",
  "88358960": "ec7e46af3096ae586921abdc8ee1663dd123a805",
  "88358958": "fb4ae505e082e7033e13b0be0aa0be0154ae141f",
  "88358955": "331979916b364f4601d188a9cc7588cee70baaae",
  "88358952": "84bb9191db98f3e2bb5495d728f0a0ee7ec55b80",
  "88358950": "7a352ea78602c2520780217a7927c0ac41ae038b",
  "88358935": "f285b73c192d6640969310f16b8cce06791462bb",
  "88358933": "8278f571744f354848c64552c28dd2ea54f1d24f",
  "88358930": "d7340649994abe883c9ae54d6bfc86ee6bbd110e",
  "88358923": "2d38d6e1de102b35ec5642905cc0e32633995444",
  "88358922": "12085df56d3ae59c581d734184cfbdfe0a38a8f2",
  "88358915": "efddb9472eb45c5b4960bed057fa5780c13e048d",
  "88358913": "212615da89ce579439e59316869015b4dcdc26fe",
  "88358910": "696bd5f0dfece1918a3cf9f0d597b9ddb2d820a6",
  "88358887": "e97160ee1075409f44f4433b0af93a158d542137",
  "88358886": "6d4255a2afdba019d3c67acf39143a1ea0191d53",
  "88358885": "c4b4331caeea43656b9ec6b25db4d3f13846a7f6",
  "88358884": "d52b897b6105d0728bc25f68994bb01317b24996",
  "88358882": "a6b13084b859c3302d33d4651a8cb38fcb11f727",
  "88358876": "85ea0128ed1b52a533a7011fc8c7c46475f319f7",
  "88358875": "783dc07e7d7b8c2d8af53a16bd1e8ac8b60a691a",
  "88358873": "29c05b9cecf0abe4221366308a8930236622a3ed",
  "88358867": "11c54aa4de9e4156d1d96788407528eeee6cd45e",
  "88358860": "ae2e414c7784753629bda7a162438a9bf0fb7c5f",
  "88358858": "7b040e71c83fe964102f6def95d042c5511a5e70",
  "88358856": "d7c2e9b9c0607c0313e091bf895fc11d11f1e58e",
  "88358853": "e751bb400d2bc78c4d59a101368ec214ebc8cb66",
  "88358851": "26c518bb7786ce03198e7666e6c30e8360e43f40",
  "88358850": "54a62094815a963811ab322f248d5f8fed906499",
  "88358848": "653ca4f40a431d790246f0948cb9cc653e6e1e20",
  "88358842": "aa5170817e5f7209ede41a20833eaa48a7c4a292",
  "88358834": "f741d1b9e585cd896f877bfd6e0070e6adeb614f",
  "88358819": "449fe7950cfb151eca817c24923dcbf333810bba",
  "88358818": "0151df13924d0ae354b63f9d04528ee94fd6d0ad",
  "88358808": "6e01aad62b48add667ae5a914855afe1ef0d1a7c",
  "88358807": "b9a9423f0ab246fb9d927c500ce81f375b5d9860",
  "88358797": "d57bbc5a943f4ae885fb4ac280ac0ef4e94488b9",
  "88358795": "28674d207f6f78aea80755780947898307c4816e",
  "88358790": "2201403ad9c6df96e53d12714b42a7e2f9afd3d1",
  "88358788": "cbb65b1c89d445b94c03b64f60c237fed77508c5",
  "88358787": "562a53d40042c3202280525f16b37b181fbcface",
  "88358785": "3465fa5b55b63d9338d6e8fbaae147c21398a6b6",
  "88358784": "cd92afc8e5ad939c2987fc9a886f24a29981301d",
  "88358754": "ccb15ca6b2b4e63da5c733ec2d2b7b7e9bef4ffd",
  "88358751": "c07ac73bab40a3bac9fa4fe298e0dc33a84f1323",
  "88358750": "ad96ca471466b3a88f2fad2ef7fc02612634cab3",
  "88358746": "148fc265c6e9521bfdd57d4c38c3d0331746c1c6",
  "88358745": "aff67e76bd44d214ce4b979aa9a1f80578b29ee8",
  "88358740": "c14c57503bf3e92d3b8c937c5cb59b700f7f61bf",
  "88358736": "70462e74d2fe9f74507c584a89ca37b2bddbe5ed",
  "88358735": "fa3f53d490dfde58988ea3ae3ba7fb9d45fe54f9",
  "88358732": "40a199527fa6533b98f550becfccab7b46429baf",
  "88358730": "283f0f828a52f319ecea065f4c8fd5acd5068ee3",
  "88358727": "03e529747980be7624feb6db5091cda97262911c",
  "88358721": "15d76b2ead2b8f3726ef4f440017673a831e6b9c",
  "88358720": "7fa72a5f9ebff3829c4ebd0b140ff74c54ae5977",
  "88358719": "7378e1025a7f9a6763e84ea248162a26efff41f2",
  "88358709": "3455781c8d94574a6109575da13a3cce9d173d2f",
  "88358704": "815b1861a4aaf8b1696426efccb3d74a017b005d",
  "88358699": "899c7dcad083abea62ba8ef2e4066e3c609ca774",
  "88358696": "bcc4cef532d009bec487d5fcc08086777f4f34f9",
  "88358690": "4515d47576d22d81566d57c45476e65ac432b001",
  "88358688": "9cca2dde48106215d16f873ba3eb6936172ccb22",
  "88358683": "9b13ca68c4b9ad95ff073c9ed8d4d09515f4fe6e",
  "88358679": "1adb51e6ad12d367f79749a48c92d92980abbe9d",
  "88358678": "1cc17205fe862828fdf614fea680b8ecba7fef37",
  "88358674": "5e9e5e333d5bd0655bd168640fd998096885ea6b",
  "88358672": "27549b8a90efa9af4e5fc8f30057d2914cddd582",
  "88358658": "977bf3fb4280113c19ca163697b61900624f9a54",
  "88358657": "b9dda5133265df0998ac97a1f738f7c67c7f1e95",
  "88358652": "024d5af949f340a58b33ed65b60880a30867b45b",
  "88358645": "5e65a7fa72b8dfead11f5cb98eec59c523b5cc55",
  "88358644": "c3dd6e4a0e368425ffae560560b798318e2983b9",
  "88358630": "51681c094475041deb82a072814acc2dda393dae",
  "88358629": "db97ff177909427a42b946c77952dfd6efa3cb57",
  "88358627": "beb8a7e9aa94db20e8247585166257924db4acc4",
  "88358625": "43947cd12fe8d3f6ab96558c01f365304e70f4ab",
  "88358623": "99678391c31c5a9b9c5a7d387e9703fab8976e87",
  "88358620": "08775bee40cbfd6ac1e176cd717895190430bab5",
  "88358619": "ed0e8aa3bb193e428aaa7da5947af64a0d9cafce",
  "88358617": "d543ed61495c795e2c78ec5a89ae30cedaa86153",
  "88358603": "5a5f13eb6b8e889af406a6d240915cd6068777e4",
  "88358597": "d2d0be6ac62e5e69f42fc1766359a0a55a5ff055",
  "88358596": "4ba331eed00c295018b89dbbc6955de2ac05f4ca",
  "88358578": "3361804d812c98d334681a8a15b73af5cdd16351",
  "88358577": "96868ab6a8a59f73f293a9f77a78143957d5afb0",
  "88358574": "70aea9e684a0a73fee3cf49cfbdd4927764e62b8",
  "88358572": "4790829152aba36f8b8674f072fa3e40419f8d81",
  "88358569": "5822251ab284f414b1a37d98cc6aa40a10f44d9e",
  "88358567": "1e5f7efddd9401e471189534eaced95b271b00b9",
  "88358566": "29a20ae99916f9e8883f6661792ab486b75b5cbe",
  "88358564": "340c93df43b693f2b0755a636a40c06c896bbe91",
  "88358560": "e6fa4178067bb1a6f208a1bcd91a0e4d167941aa",
  "88358557": "281c872a43a1d88c3d87ba2f519d0518e513d7bd",
  "88358541": "a8be1a2fdebfd0192d63940f5d2b2ad74e747c9d",
  "88358535": "523c5c4a6fd843fca47ce94416ea91320af4cfcd",
  "88358530": "e899da3c25521e2e7a43dcdbb16b5c17ca182a25",
  "88358527": "e2dbbeb529d446b87cbe65bfca874085c923c16f",
  "88358525": "cfe80f6b99b65defdf2e8ad97f2db920868ca0d4",
  "88358523": "129e21a933a5e3da97afd18385c38815e18aa544",
  "88358519": "4f50b5e368123bbc525ccf5d34ee756f7190b6b6",
  "88358515": "80c8523a265edb87d2bc96ba9f9e89a22235ff03",
  "88358510": "1416764eff9eadec7da4cbf7980de426a0c161c2",
  "88358504": "cc24d791d659be9d2c47bee23417e15b7daa0ceb",
  "88358501": "bdfc734582975276f45ad78140c45e7e06ef89f5",
  "88358484": "04e77783a6d3307d3385cee0e0f31c795377829e",
  "88358477": "8de91f840f8880710a2ac2a4fee0c03afbcd6685",
  "88358475": "ddecc4d479674e74e42a106aa0490da48f9a05f3",
  "88358473": "21b5643a191f07bf387868039484e492d76d4912",
  "88358471": "7604a6c8fb5187020b9fcfd46e16d47e9a4a3f4c",
  "88358468": "4f100d8d42f85280712fc212be1baef148dc9398",
  "88358467": "1f9e8c40a4d93e08bec41c4bd9c9a03e0f1a083d",
  "88358465": "8caffc90e2487a8aa5757ccf552bd5cf56fe47df",
  "88358454": "b989e1051843640146bc6d390ff510dbd0d25767",
  "88358446": "8e23ac6f3fa49ef8a706cb5abb7eaecdfa11aea2",
  "88358444": "7d277e82108922d5e58e16587a709d5d7827eb87",
  "88358441": "d73ddc0766f3b2a5c7c12594ab5be4aa238c1d93",
  "88358434": "c30b8f4960676a79c97b049916610f104fbedb52",
  "88358432": "013fa8b6c2cbbfd6b08790c013473060bb57212a",
  "88358429": "9060d7fea4805a1b98accb1019073a643bbc679c",
  "88358427": "95ea9b75ee36e71e8930c8acac654e49f80d0f7e",
  "88358424": "7d1ac62f7f21d06ff977366a57e974319b41f64f",
  "88358420": "c3bf004730fb408d8d73dadaed7e21f8b8992efc",
  "88358412": "facf71c9c141bf157a3ed47153d8a470db455dfd",
  "88358410": "e2d9389f39796a7ece44bcf92d8b106967756c2b",
  "88358408": "879433d9cdc36212006033a5f5770fb83ece2f66",
  "88358401": "bbf1cb090dfc46954ee2b1b849e2d4dc3d82aa03",
  "88358395": "19b09502176c59f48dd61ceb33c30fb380d039dc",
  "88358394": "ca6f2fb39c89e1e01daa2e464d70ec5317ca66ec",
  "88358388": "36d85f6b0ec69566a8e9b58b2c19a1bd2617b6f8",
  "88358384": "9bc2a56404445ddb38b5eac78079b6e6ff72bc7b",
  "88358382": "c8462d8de2ce4f8097d1aef1a7f1adb8d2ec8c71",
  "88358377": "c7f9f024f3d6a91075fb2406efde64ca7d51595c",
  "88358375": "a91011ed8de69884c84ef745b93fdc01026261e3",
  "88358374": "06eec1e7e2c439fe14090d3ddcdd3f35f395131d",
  "88358367": "7f35960d93479d4dd01ffa6c83e3b4c157397e4c",
  "88358364": "c5dcfb5951fcf866f7d07caaaecc065747e90999",
  "88358363": "5b63cc473fda9a40f0414295241f517a3561ff75",
  "88358355": "96a3e311a0a94dcc327257311d8ce9f1ccea5d72",
  "88358351": "f4fa156a1925d725941f90f3ca2c2bec9c8e463d",
  "88358348": "2ef7595a7d1a222167371ff3166614bcc81bb57c",
  "88358342": "8d86165346dd73eea5946bebafd4d8318ad4d07b",
  "88358341": "f7c7c694529c3cf43303da97161e00b38416a57e",
  "88358338": "12f4a2c5af6aab04186839f3a283abba6d267fb4",
  "88358330": "597cd85e270811eca5a7674745950dc608e6d523",
  "88358320": "677ce99d2969402d689a0a859d320d05676b912a",
  "88358318": "b67222ea8cdcb5b28f74e3c4f040e785242709d9",
  "88358316": "70e15c8ce32060ef0ac7758ff624207503f28b49",
  "88358314": "6d809f28d0d09adbd2b995588a056fdc7ab8c56d",
  "88358313": "d7aec6d286856215441c1d832c670322f73f4811",
  "88358306": "f6b0ee1e22abf03c36a5c64a1fe291959dc498c6",
  "88358301": "32fa3b7c0b460a82f616feebc3f8683c710b9a69",
  "88358299": "b0ef73dc751fb36fe141a72c7b740059dd95bc4c",
  "88358280": "1528c0605df98dd33ef62734ea285982ca8ecde0",
  "88358278": "0d32484fa6ce8b71922b1799d050efb233c2760c",
  "88358276": "183ed295627bcb98a9b9f7533be382d399cb8114",
  "88358253": "88cdec606ab435f0d36b10745317331fde37a58c",
  "88358252": "d896874aee585d4f3579bc1e0fea20d89a95a4ce",
  "88358247": "9305b85c2e08379d5494276cbd50de86aee795a2",
  "88358219": "319d8f1a542bd8fc1f07e8fdc949bc945bd15c7f",
  "88358213": "a7a18bed2924777af18cf1d7ccaa30c1985159ee",
  "88358212": "e4785048d9dc3a6bfa40f569a232b64be8736a21",
  "88358207": "ba0c8bf4e53599e7bceefe0644b9ecb4e1f8e36e",
  "88358203": "cf6fbef12dbc73c63998dfd6d77898498658e31c",
  "88358201": "d433770b82128948bbb44f914b0c13dc233bf4f3",
  "88358196": "2f641e1128344d93d9b3e4ec670646dfc07b93ef",
  "88358193": "2721d70abf6ae789d4a053b137f6484b886dab0b",
  "88358192": "9af7f4e8926ed8879824ec5216e77fa56139115c",
  "88358190": "0defd5db50b234a575a70acc5adb6dca9c3e933a",
  "88358186": "88ce7de80d15b2142d3f0a2dc50eef93f2946f07",
  "88358182": "3e66239569fde87b64ae4983b10049d39a5ebfe0",
  "88358174": "1c0df5eb064a67ba272cf762da2b4c653c03dc04",
  "88358171": "add29383cdeb6b8fcd662290d2b04554384d66af",
  "88358169": "59d6d0ee8035ac6cdac3fea5d9daab46cd54ec46",
  "88358160": "d7c02fcdc6bc579b545a61d4e8a1f9d235d044b9",
  "88358141": "fc87e5410966aaaa375713e13cbae2bf0f1be4cd",
  "88358135": "87568af4053afaab1289bfb1542123b85cad8b57",
  "88358125": "3760c9c5dbaa9c06e6dd81ca996cfd3086b763b3",
  "88358116": "0078eb1fc43fe30254864c94575bac4d18a8bbfe",
  "88358111": "69e3bbc691aec0c92c97429144843b41f2e87366",
  "88358108": "ab75eebd6c28cc9f86259653ea36dc1f5ca55dfc",
  "88358106": "2fbec87aa9e4e0c0cdf172dc407df8ee8210cb43",
  "88358105": "3ed2e9a2f707518b34ba9e75959c028d7282ac0c",
  "88358102": "1bc40b01be51af00212d7dbe48acec9db7741dc7",
  "88358099": "a14cd4298794cb3df4b60880923bc97e05306f07",
  "88358094": "15e46dba7a616704d0c779ecf08926ba5b46fb86",
  "88358091": "ac5665e9c8e0287e2cdd005e333ed893be2f29c5",
  "88358082": "bce631c65e0405e970d1affe427df19fb727b185",
  "88358059": "5a096478e2f49d0333697b45b7963f90022d7747",
  "88358049": "1bbf82d7bf52587f1e27004c5f958f2fd196a4f6",
  "88358046": "bc334011db31c9c63e84118455ad8e3b2b6b449f",
  "88358044": "6664c18f4dafb573296e4d75b522892534ddfc6b",
  "88358037": "789bf99eecfafb4a2547fd880f84117fb800684a",
  "88358033": "4d49ce36593bed65ca1eec5d65d9b647bcf62421",
  "88358025": "2665d400fdca965fdb407ed2d2f855952ee9934c",
  "88358024": "b0d8d7c603508f4cd3f0c4c339eada21977b2b00",
  "88358018": "238e46ea616dc737e9717a04117838742cb2e428",
  "88358017": "84f5f803f01e2fc7d37f130372e1f2f6c4f84c14",
  "88358016": "d1a374fe90480550603de1be6768a1b68a2f4d91",
  "88358015": "9dcf886ca648980ed53610da8f79fe9df5f58e93",
  "88358008": "70bff0d76ca00721cc19b9a12f5e8cc0da1b22fe",
  "88358005": "d11fdb9e1bed6d081b3ce4db35fc80524171ea5f",
  "88358004": "f0d25a7af43f972b1a84bfe863c38e41bf5d22c6",
  "88357999": "0b556950cf709feebb2807a983156d453713e276",
  "88357998": "f132d8a7ab5e3e0e5464e982f82260a7e8874d32",
  "88357993": "8f34d2f177025b6e283fe13a7f8a2d88add4cd11",
  "88357984": "429f4a499e24822892f27474dfd473f443280f88",
  "88357982": "2939246f37396f37a617d3c0d0b37610ec53642a",
  "88357980": "24e999b4bde39e8d8514b22aac8a8754ebafdced",
  "88357974": "c1dca8903fd84da4e8f1394018c6ec77571b91c0",
  "88357969": "efd6579f52cfd55c80e135b6b2c11478ed296695",
  "88357968": "48eb02ec3f12454965e0c4f92eb204dddc796045",
  "88357965": "c27866bbf6070732b54cb389f9058f798e1aa45f",
  "88357959": "6da3a4e0285457b7891207955331031ee2713595",
  "88357958": "a80d72188f0d585a2c1b0ce3e447854b9ac227e9",
  "88357953": "8093a637eede481fcddaa080c9794b572f80df4f",
  "88357947": "f6c84e2e081c87d6f66ebb2fcbd7a2d13d96eae8",
  "88357946": "60b93ef5c103ae2cf44b0f7b6293b11ea067e545",
  "88357945": "7e2c0ec183451af206e844de17ff6569bc6cfa07",
  "88357944": "062a6bc8356a2b4c62557a7cd7616fd01441802f",
  "88357940": "d098c1096c21f9ae23edf798bcb2c206c21d541c",
  "88357925": "3612e03a31d6d6865f068d778338a89d077bed86",
  "88357924": "c0b351d729405a6024853a15014662a733347db4",
  "88357919": "87b9e051520faceec1d9e83eae9fd2af56da1caf",
  "88357912": "95d5952e92fa16822eb296577b1b6ecc7ea64f48",
  "88357908": "e07acd498e9733be0bd278dfac19604dc63b9877",
  "88357904": "1c0a283a81fce1636d7dab6e584923211fc42eb1",
  "88357894": "80cb5dcfcdf877015e15b8f736b78d79ec4e9991",
  "88357893": "1838136f9d4c4cda487b1882851d0deaf6af08ee",
  "88357877": "2f2d8d249f68071b9b268d6394e293b7b471666d",
  "88357874": "5d42309b3ad76487b55097acf2710f4250ffa234",
  "88357871": "acb009bc911fb5cd16569a2935867b498a90615f",
  "88357860": "5e576826e19885038ee6cd6924c58170761262bc",
  "88357857": "8f6968cbd5a769b067156afc59661f27533b4184",
  "88357848": "83f807a42cf974589e5a77cb7f2d934e26386e6b",
  "88357847": "5d90e4c6971f62137c1374f99572f5b34cd0b32a",
  "88357840": "c06810cea069c6df975d510d528b62b823b798dc",
  "88357824": "6e2ddc9eb3ddc4a181e216ce178f3760d31f1c1b",
  "88357823": "1b2379915ff59bd5991772f2e63fe8d0258f72ec",
  "88357822": "da14f1bf09d9625e461fbff15c042bf5f2252f8b",
  "88357819": "4c8b7544cb5487ede891cd451dfa636058ec1e4b",
  "88357813": "04f5721e4e0738cb9e1cda683587c29f8a27ed1d",
  "88357803": "bdd8232eb606be21ebd9dd74a614ddd0c074db3a",
  "88357799": "a433850be9bfac67784b29367a58f3c144046ee9",
  "88357798": "ceee439a0b5dd515c6b36df8f13532ac453769ad",
  "88357789": "30daa4212c1d557f6979dbc55417371304d949b3",
  "88357782": "12507fe7aa1e9d23e237f92bd23417c939233bfd",
  "88357780": "cf055c8f3d5352dbb4b08078fc9b580a0c70b595",
  "88357771": "cea5afe8fda025bc2b1ac33a2cbf5fdc54c07f74",
  "88357755": "3f23fe401677765377291dde93aec74f12fa3872",
  "88357746": "e62f72979a91332ba37b998086d5d5e2f8af08c9",
  "88357739": "bed87ab3fa087787f1c7c91cb98880c9baf3bb7b",
  "88357716": "744df75250efba4d97edf9c83803261f0891f206",
  "88357690": "4d1fdb3395c7597aba0283cf36229638cba09051",
  "88357677": "e7127152ee3ed9fa6517118c45cb2419cdd44536",
  "88357674": "5877fc233103a800934e108e6e124455486dbab1",
  "88357672": "acd4e2ede616e11b2e5701dd312721bf8d5e1a8a",
  "88357668": "a3830b6337779d802886fae69acfef536f146d6b",
  "88357666": "b322d18172bd7a0755852bcb94a1dba264b27430",
  "88357664": "50a88f3a913e156cdaaf345e0af4b594e580aac1",
  "88357662": "0e930a93e7c1795ca57738fff5c867ea38a0a62a",
  "88357655": "ab8a4065fce52ee934214253b33b3f5929552efc",
  "88357652": "ee21a92f612839a1fdad819ca9a3e8b56d63fb35",
  "88357650": "2add96d6d187b55b75ae6e5e6f9dfa2b850da465",
  "88357637": "05da806ae585985ce57a4c1a31a4e6cd7a0316e3",
  "88357632": "a56a5c5c5a3b5e96e90952dca93fd12fda998088",
  "88357630": "7f0f10527290d3a4c557201ff267ed43c82d2d0f",
  "88357628": "7d76bd098b53d2c4a427531856242ccdac231615",
  "88357610": "29076c9fe37208b5092e8ddc75960d49f7f81cfd",
  "88357600": "01bb2516df1263704dd8532d46db163be18e1ca8",
  "88357592": "b5b3fb98a270fdb8a334f618b797bc1003e3300e",
  "88357589": "736c70baa6534eb72f3bdda37b45b51cf5758ccd",
  "88357586": "0b5e67625896d98bde72c2d73f8f8bb2726017a5",
  "88357578": "a7ffcb50f689beb06b858f0b53c88939ade68d58",
  "88357574": "2ce548a64e9149ffcc32a13cbf3f7324ddeea4a7",
  "88357572": "2ddaf4c783acafad414614a22261a9dc6c24a70a",
  "88357570": "9dda7ff429469fdab9a11653d662e8ff52b75ce1",
  "88357558": "234fd4c619a3da9fd3ff6064cbe4852e19868318",
  "88357553": "316e6adff9313b33c5562f226ba48fdf7649d2ca",
  "88357542": "f11af592f41d2c287f75f32c6764f35594e36002",
  "88357541": "ec6c349491bcc3603287b8c8224307df7cf05a3c",
  "88357539": "91b7f75b3ae04808cb4df4cef0770a8a5ec0b2ae",
  "88357537": "4ac8a44a2b090cf25c1ee31cb44ba2336cb2192f",
  "88357536": "0e149c1684f25cf985f5e8230f2c5922e6d57a00",
  "88357522": "fff18a41944ffe90bccdd2aec864eaf518739459",
  "88357503": "2c8fd5d020fca1a23a9aa73882e2d12f4f5c4d00",
  "88357499": "89cf072b0f1209fe45fd0dbeb4cd0fe0208281c5",
  "88357493": "1db0c054cebf4416bc42c3bac16391ddb0ac8f61",
  "88357492": "552e1655acf0626be2d1c828a5a5df6e973ebbde",
  "88357491": "3f72d3dbb77f6f7f1356096e0df32bdc9e814c8e",
  "88357488": "39f577bc81780e0f367abe12ea4750166fd2ac8b",
  "88357487": "3f8a53ec29e5607ce97b8e3916e00a772e64b855",
  "88357486": "6430f9935d4cb47176ac7827b91214aa3aef1935",
  "88357479": "5dda5dd330e08cf663cc87b218be16dae34bf4ab",
  "88357469": "7c2fb58cb009d1234b450fe07b4fc4d278427842",
  "88357463": "8bc1257b22a3e1ee7976da2ee3f952fae3cb19f2",
  "88357455": "a5436a27917273a93efb9663b4255694c5cc0831",
  "88357446": "8acefc18e060ecef6388dc223d37182858db3dcd",
  "88357445": "b78b93487adf5069346cbf89d63273a2ca5bb568",
  "88357444": "daa96809da435d681181898d5d4678cb3761a0dc",
  "88357438": "a52387a3a0777c4dfbec9f1943630065d87b0fca",
  "88357433": "d9aecc05a4e9f24f49d1098463f4e9b6d23616c2",
  "88357431": "f7056d57192667cfcaa27b125872da9d9b37ac73",
  "88357426": "6614e7598beb9d0a677e0640625afeb351ed4e3b",
  "88357423": "7c8e8c2d165d4f8ce52465e08b5dca613b362bb3",
  "88357421": "9d6d839ea55d70aca3e93a40081b5670ee57d355",
  "88357420": "6a598b1a1cea8903c4981107420c7930b5195351",
  "88357419": "ed3a235ec7303bce975ff13c0bf44d90374a764a",
  "88357414": "8ec8ad7d6fe00fc70005c04dc65c510b88597946",
  "88357413": "bae2c90146a946a7a44e7a065e17202907e8d8d8",
  "88357409": "bf49ca4065250465091faf2fab2421432bf130b3",
  "88357408": "afdae2aef84589082d2075b14a14e6a6c585d084",
  "88357407": "349c4666cd980e9bb59255b5ea1d10abe9b70a7a",
  "88357404": "26dc0aba78bf58971e3950846d5a1760e95e435e",
  "88357400": "f804dae14210dadd3db098e590229c96b2468460",
  "88357399": "7e9c434faa403d971dae351fdbe58b1a72f05cd6",
  "88357398": "6f9ad74f3b6b5a0d4a05f52ab35232459ee56577",
  "88357393": "de961bb52fd362c96b7a8e5c5fff9da24471b588",
  "88357391": "6adcc1978b506e6d66144f25d504311af0b1899d",
  "88357390": "5f61b7d48388b2f6cf3c2d9a4687de56e6c75446",
  "88357387": "3ab79a748d243bcb16ff852e512f1b0bde48f6eb",
  "88357386": "b649b169182bd77fb0d72bfcabb4b5b3b0ada9e1",
  "88357376": "c9ac7e2a7554f14e88a9e511aa86dc0eb039ec8b",
  "88357371": "61bbf31745d61714f221e272a4413c16b187eabd",
  "88357367": "148660c1b2ed0de812e16f0ca7c1bdfcc257d488",
  "88357354": "c01aa455001c29a22c1ff146775e69b970462dc6",
  "88357353": "4ae3c50992343b8389d6ad21ec551b5653e34931",
  "88357337": "560f9edb39fa2f357ad92b3e55fe89eb68605549",
  "88357334": "369c96f34218210dea6abf4fc8239ab89f510d0c",
  "88357330": "1e6e842b9586f34bbb1049a3b3fd47a7a9e9a990",
  "88357327": "58b53952209187b6620bb0f26f4045b5c9975ea2",
  "88357319": "ae57c574212b2e75b6c2ecf546d66b165b107f93",
  "88357315": "90b16f0e374ab84353e6db9b9b015358c09fae0d",
  "88357314": "b688c1eddd1e3a3c9b7beef2b1715fd17f5c65a2",
  "88357311": "fe7f637e94ee71955f726bcf0c5f7975d5ff3efe",
  "88357303": "cba4e285976950d0b0377c87e3772a9b4eaf8e7b",
  "88357302": "8c7507dac29d2bfd01f9da95750aedb8c0f510f6",
  "88357298": "6a317c655372bc9eb68ea48377078278b8d40c3d",
  "88357285": "38803d67de6c9e0239ef7bd13958a4919fb1ba4e",
  "88357276": "ca496b90594dba2cac9d26f771be8e3242b3bd3f",
  "88357273": "04ac4fde5ad2cb5208c609658ad09d32be1c4a08",
  "88357272": "294f328b004dae1e26b514c17b146966f0b17308",
  "88357268": "9d7d6de483ca850984bc70787e9073ad8c3153b1",
  "88357260": "52d51c8edaaa90448b11095ada0fe9f44b6e9344",
  "88357259": "a5e3d57adb4f09c611f11cd2dd3a750fa69d3c44",
  "88357257": "11a8b6060fec248a0be5707cef08d6256b83b57a",
  "88357250": "efdbc29198c60f3070009130f2ea1418a0fed43c",
  "88357249": "6e3f91806cbcd253de9ba24a2bd449b4faa77abf",
  "88357248": "92578a991c26c2edbb6941353a5b5830fb0d8727",
  "88357243": "52bccb46134238a07f0a7239f79ebc6c279bf30a",
  "88357237": "283a6cffea5e60f2838391fdc2983d972d7fc525",
  "88357236": "bcd433fc29a08d32b62c905335d7850ba3bf4674",
  "88357234": "7f5d3b32436832e00d2d1c14fbbe09714d9828b1",
  "88357229": "1bdc87c0ff08f8f9137e7c73a9cd64fd4839da32",
  "88357224": "ab59307e62211597ca127541631bccaa77b956ef",
  "88357218": "a9ce3fec18c3bb1f7646d9a228a47d9689768e69",
  "88357211": "c73df543776771db83cb362bb15a342914c88ba0",
  "88357207": "1c11bcf3e67b4d3d8f4627733a518cc5b8c74514",
  "88357206": "d2cd63eb03ee001c14bab72532ea4075f3902f81",
  "88357203": "641787232fac1585222edb50d275ba0e5ff103d4",
  "88357201": "f6ec5f1647fa1af1ec9779577061d4bf1d5135f2",
  "88357192": "55d0038a68354f792245d04cc7810d18b37eb713",
  "88357190": "0d0a9348dbdb1880a3d147dded32cefface8e2f6",
  "88357187": "a793c9cc8c9e3ed14fd9b7294075ff8a7a19d15b",
  "88357168": "99e899214ae11b55ff9652b1d7641e59dc5a1e5c",
  "88357162": "a0aeabbc7129773c5ec6330985eb21c587f3dd3a",
  "88357161": "620fe7bc2a5ee8502a440c2966f3dcf01de8af5e",
  "88357159": "afb592bd8a43562f21a0349f342c4b32c1d98a6a",
  "88357158": "d1ab48d65d4c551215fa0357b56102237a55f062",
  "88357152": "5afd00eec114a633eabcf9c1990fe465e75f81cd",
  "88357145": "bf423d43f16f61b5a84750931f223911045e2160",
  "88357143": "93493cd70aa042f86cbf2d3c0195ea3e4a58cfd3",
  "88357134": "f93a3195cb65b7af4b43c36740950c6513099d0b",
  "88357128": "2c0f467734fab11c311e5bb3e0438ceb7acb0f85",
  "88357125": "248a56ce8be3bef56042fb406d73a8230195af13",
  "88357118": "1eede6e7ab2c0526258913ab95fbcee0adcccbc7",
  "88357116": "bcaa81cd6d56dbce2cda46bf4bfdbf7c86fbfd4c",
  "88357110": "1876404630fb2c9da910512215605f14644a813c",
  "88357107": "ad89c50f47d1ab3e58b7c4a489fac08cfa317a98",
  "88357103": "44db767ecb256be2fc44137b5f42c06df6afa60e",
  "88357100": "f18f49a7383ed0f9059cb3924876769e2df324c2",
  "88357095": "30975d099cf8b55bdba6b80b3391a7a01d66919b",
  "88357088": "785aa1a15c72ad69cc9e8277bd02a1aca782995e",
  "88357076": "8d352c74b222bc1f55d063bfe68560bb682097b7",
  "88357074": "f5a4f2b4a28fc16a50a3dd0090b60c7f1a2b807e",
  "88357063": "10895c00819185f45b7d2503d4052d7bb906e4db",
  "88357061": "3601a9643c825cbf826f982c146327d41fc25d01",
  "88357054": "76cf4b942055fc7703c681b5ef14d1b4ef566ae3",
  "88357050": "75e70774042de4b0a6b045169997ef2ab808745c",
  "88357048": "7ac1562e1b129e8f4ea4733424de5c381c6778dd",
  "88357046": "0c82e279190f8f5b5aa6ad96dd42622d860f1e47",
  "88357032": "aa3d08dcb8d17a5a30f35fd9a55991cfc7c68f1d",
  "88357017": "65c5a87d611ef6f5367a5f46adbcd92d5b8108d0",
  "88357012": "ce7e37cc06e5b283c7c446c9311f6b3f0ef513eb",
  "88357004": "ba304b73223eb2c4bfffae9f3f550ce5d6202621",
  "88357001": "c4050167251041e665facb34841e10643ccdedf3",
  "88357000": "1a76db2feb3b24b0c23f0690658471fef6fe682e",
  "88356991": "6347dfd28e186195da4854a05de5a91d14832982",
  "88356983": "c0338fd6c7711bbaf438bb5263ed486f69b6f6b0",
  "88356978": "31f7edf98cafc7fe31d5e56ad00a661585b55c48",
  "88356975": "bff6776d931cca2b09872a2159533ba1e98b8de1",
  "88356973": "8cf437a2cd603c7e8a9597811e4fe6c93e213664",
  "88356970": "ebebc8e4c659d0b7af4db9bd257bed18658bcfa4",
  "88356964": "d1714e8755265240a5801a7950a7d6813cfdfa48",
  "88356963": "88495c69aa9b0c882ca920b3ee40efc4b33c3c03",
  "88356959": "0a496210540765a0025fe23c5eeca254fc74372c",
  "88356951": "6dacfca0496d3f8cded41895eb88c255b37511a4",
  "88356940": "6e92e71eea64569f7ca41b057b693aab33e1bf0e",
  "88356939": "8ed5ecccc00202c4570aa9cbae6097480aed72fa",
  "88356927": "89a4ebe9635b3a9dc40be0e89db6ae58caae378f",
  "88356921": "ff9ef8af209adbb6979b9a20fb300262e7132227",
  "88356920": "297753e5f0a86e2ea6629e283f4f9f6458e94bb3",
  "88356915": "c13b46955557940de53829437211049dcf9ddf18",
  "88356913": "2d9c332912f0d033ecd84a731fe50e3666f0c18e",
  "88356912": "d1cc58f00176b61221b614930c6f06ea73fe118d",
  "88356907": "6e67746cb2f07106efb4783542e4b53259917a49",
  "88356906": "8e43b8f102488928dca0fbe7fb21692a6333dd22",
  "88356902": "bbbe1e052c17136c8d0acb06f66a44103ceca76a",
  "88356900": "ba8173013ae1a0a297bf49b70ca3702fe3746a90",
  "88356889": "77452a54e9be60d8dfca9a915193d44c4c452238",
  "88356882": "5e75a7ba5689c592209fc84e19ad2d3ea31e86cb",
  "88356873": "71840ec949d407267bafd604db6bdbee2b205bea",
  "88356865": "9cb1e31a341d32464770b68863b9af96cfd2af64",
  "88356860": "9ae5760ca6be41e4b11406c4b3c4c65d69f135d6",
  "88356856": "5af9961980b42ecb8baa6606b42c9ca1303bc69b",
  "88356848": "4640934107cd2ab95d232c48695ca123bdd43ba3",
  "88356846": "f993404446b091bcd9316186c0b0840109155bc5",
  "88356843": "039d3acc0819c072ddedac8f2f0d188b633578b6",
  "88356841": "080e09762c179e89fff5de77e953c3ea909722bd",
  "88356840": "771e9c22a3b653bbd0fa9b5627a4b5936e5ddfd2",
  "88356828": "2946ca71f30b1c7a1c5e16dbcd9da76407aaeff7",
  "88356821": "4d39df0713021c32664d592c4baca7bd8162e137",
  "88356807": "ea9e1fdd3241161f802ac751efa2630b494c884a",
  "88356784": "96b04482e249ba054ddd668e0ecb9a3c162afeca",
  "88356765": "9d2d2edf2bf28d07ee7ecedbd03e8f01ab9eda26",
  "88356760": "19e45966e51935c614bd8d280f9fe1e34c631e16",
  "88356758": "2e92115654c42014372b90cc39f9e24edd3e7b49",
  "88356756": "1f322c2c7dec4fc6e0ffd0e7e69f6dcacb2f0e4b",
  "88356754": "e2cce9b05af1df5d6609cc81060ff4e2b6b47184",
  "88356750": "9fd13569c6ceb64962f57b332345d155337be2a0",
  "88356745": "31f61c57c13ea6de667f8d18f8ad080c7bcec7f7",
  "88356741": "f068e7bde067b62330610a73cf5344a51eb69c28",
  "88356738": "a6611a99b6bfcc3a03396206c394a21ddaf7d83c",
  "88356733": "f7aab5aac1655a86ca8098510c156b99fe666a06",
  "88356732": "20393040016612d74cf04272dc9460497172c100",
  "88356731": "7dbe27220532e6654b48012b101d9defabcc2895",
  "88356726": "2f4b5ec017be1cbc40e9ce4878982dac14512db0",
  "88356724": "750fe82ad51c7ded70f23bf2c0dcbb20ffc7d340",
  "88356719": "1628c1536a120b2b9d3efe00791c23e90f284abb",
  "88356718": "38e8ee56269a1552c0b44d77f544e67505c2e676",
  "88356717": "f1f5be7b40f94d34224c0e0bded7aa495d0ef6cc",
  "88356692": "6ea4c373b5a9ead98e5ede13a9aab8ed7f27a2b7",
  "88356691": "830fe733b4da07d3743e5a8844cf5f216f4e3302",
  "88356688": "abbff83d4de7a78d0891d97d9855b0b697a2367f",
  "88356677": "b8d1fc49180ae00512dc308de8f4040bd54d6cf5",
  "88356674": "ba37ca091dcf9f6ac81423f775114079fe7c88bb",
  "88356673": "5280552263b30ce09696ec0239117904bbbe6d89",
  "88356666": "d566ea4183d60483a874fe4835dc23df290f5757",
  "88356659": "17fc28b7bd9b5f7404e277954fe67b3358d9ba69",
  "88356653": "49b2638c113e34a577f4d010996a401d5eab527d",
  "88356637": "955db70d8cee22af74051896063482a925734a30",
  "88356627": "1abc2fcbe6d18e8cdb336c7bb06371e97473699a",
  "88356626": "3b79288e69551293143f6f2511c79f8d30307937",
  "88356623": "e2f6fe4e7a0f3344d05a4f33ddf24debe9361d41",
  "88356617": "8fafb7734e9b5dae2b832d6c6ed7a051248f8feb",
  "88356605": "24a036fb1641aef68454e3e4e2d1bd4e0d5c363b",
  "88356599": "92cefaa98cad86fdaff87b3bf98c08ab3f650367",
  "88356590": "556b0812a04547d8e4e42b1d918406a115fa64ca",
  "88356589": "bb2eaeb3fef3df987b9e556e2fd9682e517024e8",
  "88356582": "fe380d2499db605d8324ba74ddfd2df99e6d0adb",
  "88356576": "0f953bf76ea7d1f05bd04f769a2249918ad42046",
  "88356574": "514b6969120600ca29dc36fc5a54cfc7b04ac100",
  "88356570": "9a88a08f9a04a2393b537a22db267f27324329a7",
  "88356559": "62082e536bf7220264a7379fcfab2865bfe83bea",
  "88356555": "fa129c7646eec5c479d7cf13533231e0fa4cb612",
  "88356524": "966553cd1599830daec8676e77b3bcc5b42797ad",
  "88356520": "3380a266dca29b2e11a6c8dd0f670128fa96a223",
  "88356515": "0e482b628e224b1cea039de4bc985a97e501a5e6",
  "88356514": "049c8233444df7d0754725d3f555955143f3ec67",
  "88356500": "36cee73144e424b9be4059e49ddc56669e6e215a",
  "88356495": "ec5c7bf995997b5f19ddd9f995d239f84a9725b7",
  "88356484": "229ac90f5ffbd67c92dd91bc496580704e2179ee",
  "88356483": "e533c2f40b76e8843505c83a7e2065b5d76a2f3e",
  "88356471": "26f77bda48eff089aabe1f7c3d78991decd8f6a5",
  "88356467": "0033cffb7e6afe93060b72bd899b45cb1420b6a3",
  "88356465": "7dc72bd15d4851398a9149408f5148b84d3d594a",
  "88356464": "4063b2a08ae9bfdd7ac81c5af66cdb0b85b3cf97",
  "88356462": "4c3f4210042d119a42578c9995103cc56feb4f69",
  "88356460": "e99d3de5517f3b57a0fd3341f13fe6bc8ce6e8d9",
  "88356455": "88a396356b6c78d814f64caa39426032827e7f5e",
  "88356452": "3b3a10564ae387eba99b6be4d8a6b1f958f33325",
  "88356451": "7408d3717dc5743c48dc2b494384b812a934472b",
  "88356444": "e21042222a4d41af0738a4e56736a345e7bfc685",
  "88356443": "c0b3436ded7fbe6a13d3de23b3379e6d7797b95d",
  "88356440": "35f8aea2b989997f6470e8282a839e5db76c88ed",
  "88356433": "71b681b52ac5aefcbf8312fb41d4928184d4f4d4",
  "88356427": "68eaad424031ce41144eaf4933f52be80d0d292d",
  "88356422": "e135510146eff447d89ebfcf4a157c0b4b3889ea",
  "88356420": "a527e7829d0d6ea0a8aa299aa94e137be870a7f2",
  "88356416": "573bed154aaee6440157d693c382ceb57c18429c",
  "88356409": "8a2e8acb359fa295c926a7e7aca5e6e7401f1d0e",
  "88356403": "a495e9f760e2ea57fdf3a6edccdb05379b53df7c",
  "88356397": "cdc7edc64368b423e4315e0dec9a2933412e0983",
  "88356392": "70776dbbbd57a7274a813f08d09fe1d8d6fbf007",
  "88356374": "e634b17f7a36999b8c51588cf9005df0f08fcdaf",
  "88356370": "c94c150a49ec7e8622117113c64521a4e1ef77bc",
  "88356366": "c34e06e2ae7bb1914fcd41b6a69f38deb2a26a81",
  "88356360": "3800805bcc17beef6d9fda9fe1bb70978c56733d",
  "88356358": "075424e9f787b261a6c2603d680f62cb2925521b",
  "88356349": "ffebb46036123c7188ea110d716c48a3f491fa6a",
  "88356344": "d29783e334223881574efbd9c67d9de5827e3ac5",
  "88356343": "69e41a195ab51a13b3a1eded452f1b83976cc3f7",
  "88356336": "cf3e10a838ad29d49c5df50b75427c170f936a8d",
  "88356332": "5a4630ff4a88cfe1cd64ab21cc92bd6ecb7ec726",
  "88356330": "3da82bb9a99bc0873f33295477073b8ab1750d8e",
  "88356329": "c0685c7d1f5ba19e003c7ecd543af45a1551c530",
  "88356328": "2da8ea2a2fa53fcd12fa6a1e77ebdf52e4e635b5",
  "88356317": "128ce7f03d7d27dcf42dd83abbe8ec20532a9d0d",
  "88356316": "c0a69339abe63705e07e5f7745c4d74d9e245140",
  "88356314": "a123597d12b1a15aa5559071220ff79e5b9e691a",
  "88356308": "d39c0e373deeea159f8bd74199f1a3c00d730a91",
  "88356297": "c6a4c02977fcf3bc664f5309f6552ea2feddacbc",
  "88356272": "ca77d4cdc0d143c0e33056413704d25305a80cb8",
  "88356263": "eeb159d4cc4aa803684de3d5948d62a74d1cee92",
  "88356260": "08a35d39e40a831d4deffa6d2dd7027e720659d1",
  "88356254": "af882bc7e961143b893ccf2c05c95bce803a6179",
  "88356251": "1e27b471bb19eafea572f3bd6b80a9431faae603",
  "88356243": "4bce1b1c38414e6db73a07be0e247da76b2a860e",
  "88356235": "811ece3146100fe09a0b549435e9522c27586792",
  "88356226": "b1b9739a5b1e125ca378e94781dfcae34ea2c9ba",
  "88356217": "01d46ad35765ad1e9dd3b904c5c775ce1718a238",
  "88356214": "75509b11dd8238373d6253999d6aea1fb563af7f",
  "88356207": "5a17919dc97732de2e231017146591d206f043e6",
  "88356205": "504f4fd1ec2a6825c945b14b96ca95c777e13883",
  "88356203": "80b93e9dc01e37910db1b5737d3bdc3ef21d18e9",
  "88356200": "13960bf6fac4d963deebbd1f6b995b78e18ef04e",
  "88356195": "86c61dece462a4ebfde71546425b724a0725988b",
  "88356194": "94be6ecb4862c40a974f3fe147d61fe312ee4066",
  "88356193": "47688b6242b67ce604632270af066dd395a780e6",
  "88356191": "62166a98f8c4f32612135e0189c82f61357b40d1",
  "88356187": "d04990a0af6ee1539f9aaf7e5b9400dd73d2fd62",
  "88356181": "d195ac21bc8bb726f430ab1b2aa20145150d4c89",
  "88356179": "8d7e7db3935aacf11d8f5a3349308e6d2754549e",
  "88356176": "ff3390f64c438a6bc31849dadb8766d1e4a12699",
  "88356174": "0c7bd19462df7aeb98eb156d7286ba19d3afb046",
  "88356172": "03478a8748a9aafdaddc5383d41535a2c5ff3fb6",
  "88356168": "9fd8be976bdeac30afc93b7803d9f760a0dc9ecc",
  "88356166": "7f06b7bfcd433db1511dc8c86a3c9e9219cabc85",
  "88356157": "73d9884a643f5923ac87daad7aeb75ae24a464ff",
  "88356153": "21a112b8bae0c1563b3279fb22e093f7e84093df",
  "88356147": "fdf2cae210d43f4d5c64dab318d445f2ec27ba54",
  "88356143": "49d2350ccb2b71e83ffc697d38bc55c5901fa287",
  "88356142": "623d5ddcae3a59d6c088bd76cf91448d3768f23b",
  "88356138": "fbffb03476a18edadf6ab9021a3d478297db14bc",
  "88356121": "d95d71aafe22632195113fdbdc69abffb4beefcb",
  "88356120": "4c29cae8c59eca79a2322564277df305b98c0c22",
  "88356115": "eeca1bf3fd6a209dc6643f42a49842c8041155f5",
  "88356108": "de9fddbb85ac44780bfdb7c4e999e430e973d7ee",
  "88356107": "597047d6d46b169ae240ec506f431f8866219538",
  "88356100": "12f7f587550c146d4a602cbb55bb2b19306a0017",
  "88356095": "f4a2423ff953cca5391cbf8ec463a7c0d745ea32",
  "88356088": "763da652023758e0c4c5ecb682d872ec36f1d3ae",
  "88356086": "bcb2b66d9e18eb921f6452c73edcd16dbb0d4472",
  "88356081": "1d07afcd399e9b4a11d9eeae8653ddd523334aa3",
  "88356077": "2c2b3beb87a4038a85172a3bbc29150d8dea2c94",
  "88356056": "f26b71f0de512da899a793efba26466b2dcfdb9a",
  "88356055": "e4a10d72bb8292f23ecb3d45f73ed2892c420246",
  "88356048": "59220f97d873777d7d6e563424b1e2144760e0d7",
  "88356044": "256d2354f184415ca2a28c49e6c75f6e8cfa5fff",
  "88356040": "2535dcc8b780a004143cfe1c489010f714c810a2",
  "88356035": "3d29f12ee476510222657a3f0d741df7bbaa45fc",
  "88356030": "83b12cd0c5c21e93a9594b1fd0218f15ed8769b8",
  "88356026": "d6bb2a9f52ac107474eb878a11ba4e9940b5f00d",
  "88356025": "565292a8d5360c66c6af9d58368cecf568fe299b",
  "88356022": "6095c3a67f83bb64bfe9458fe5e31e994a468d07",
  "88356021": "1aec33973f6a474fe77fad37f4e54d757646170b",
  "88356014": "6c76358a1bbdbcd135256fdff12af6eef029c396",
  "88356010": "612e5162d72fd03fa3238a90653569b532e72748",
  "88356001": "c52d8511146b49f475c75477c0653a30a2b1f064",
  "88356000": "ab558d1b847a33c238b10abb87abde7b6a775bd1",
  "88355997": "a2053022027f19382a86f5bf4f677b0599a36f74",
  "88355996": "984ff419817e021bd88d6b03c9e5879f0ccd4696",
  "88355987": "09c0bda1cb7358e1c910c1ffa9d4d7ef1fb4575d",
  "88355978": "84efb75836328d3fdc2dc5b31809e6bfc9396786",
  "88355977": "320c70658529bd97e814ff694d281220017293a5",
  "88355975": "d4bc26891eff8d5e272609e621ae90331ad87dea",
  "88355969": "0126a947d4e1cdc9e9b623ba07eee4c83f1d8e0c",
  "88355959": "587f2a48c2e4f307fe94d49a568fa35b4c72c3cd",
  "88355954": "f1a466cc1e6165aa71d9d65c14943ec5c4afa65b",
  "88355951": "ea140ca0e03647063feb350bf893a27fb6518053",
  "88355950": "1a63d796a2aafc4fa2a6df1f13c17d374e9a0f62",
  "88355949": "dfc77370b62f41e9dd4047daf2182ab1898d4199",
  "88355948": "c5b76b00744c4c4a18cec223b5c70a71e6e7546f",
  "88355934": "0c5b6fd4cba7987fcf3f7e71f36081aa6fc2b952",
  "88355932": "b5960156893dcd37517dae3a34e229241b40ab2d",
  "88355926": "7d011d4e8046d875f78e075ff253b4d9583d81be",
  "88355923": "0fefa243745b81771492c9c65f19c4ee9eb24743",
  "88355917": "ea02aab1a05f226286310591fac3adb415cfe7d3",
  "88355914": "c003df1e1c2bf03f69962aae3c55cf80a3ba0a30",
  "88355912": "7f91ed9ca962f7babf4edefb727fea9c4db2dc26",
  "88355899": "fd5378751a547ea0b310ed00328a35126e5b8ed9",
  "88355880": "f479eccaaffbec92ce7fa27e371dc8a5c57a47c6",
  "88355872": "7940734d5c59f15181e38ae975e88c10b40e9d5c",
  "88355862": "44492ddd7f8eb3ce76d561924ad48e17ed4fc059",
  "88355846": "e5da82ececc26344a185411d9bc83c8fc915d837"
}
